name:omega-1
bg:corrupt-moon
size:2000,2000
teleporter:1000,1000
horiz-wall:750,500,500
horiz-wall:750,1500,500
vert-wall:350,250,500
vert-wall:350,1250,500
vert-wall:1650,250,500
vert-wall:1650,1250,500
key-item:100,1500,108
key-item:850,1800,109
key-item:500,400,110
key-item:1850,300,111
green:100,100
strong-green:350,900
strong-green:350,1100
strong-green:1650,900
strong-green:1650,1100
strong-green:1000,250
strong-green:1000,1750
strong-green:250,500
strong-green:800,1800
black:100,1500
black:850,1800
black:500,400
black:1850,300
black:1750,1750
black:1800,1800
black:1400,400
black:250,1750
rocks:40
gems:1,0,5,10,6
healthcell:0,5
fuelcell:0,4
